{
    "subjects": [
      {
        "title": "Engineering Mathematics-2",
        "type": "Theory",
        "subject_code": "15SC02M",
        "icon": "https://bitbucket.org/AndroidVipra/diplomahelperresources/raw/master/resources/icons/file/file.png",
        "path": "https://bitbucket.org/AndroidVipra/diplomahelperresources/raw/master/resources/files/ec/2/syllabus/1_Engineering_Mathematics_II.pdf"
      },
      {
        "title": "Communication skills in English",
        "type": "Theory",
        "subject_code": "15CP01E",
        "icon": "https://bitbucket.org/AndroidVipra/diplomahelperresources/raw/master/resources/icons/file/file.png",
        "path": "https://bitbucket.org/AndroidVipra/diplomahelperresources/raw/master/resources/files/ec/2/syllabus/2_Communication_Skills_in_Englishpdf"
      },
      {
        "title": "Basics of Semiconductor Devices",
        "type": "Theory",
        "subject_code": "15EC21T",
        "icon": "https://bitbucket.org/AndroidVipra/diplomahelperresources/raw/master/resources/icons/file/file.png",
        "path": "https://bitbucket.org/AndroidVipra/diplomahelperresources/raw/master/resources/files/ec/2/syllabus/3_Basics_of_Semiconductor_Devices.pdf"
      },
      {
        "title": "Semiconductor Devices Lab",
        "type": "Lab",
        "subject_code": "15EC22P",
        "icon": "https://bitbucket.org/AndroidVipra/diplomahelperresources/raw/master/resources/icons/file/file.png",
        "path": "https://bitbucket.org/AndroidVipra/diplomahelperresources/raw/master/resources/files/ec/2/syllabus/4_Semiconductor_Devices_Lab.pdf"
      },
      {
        "title": "Digital Electronics Lab – I",
        "type": "Lab",
        "subject_code": "15EC23P",
        "icon": "https://bitbucket.org/AndroidVipra/diplomahelperresources/raw/master/resources/icons/file/file.png",
        "path": "https://bitbucket.org/AndroidVipra/diplomahelperresources/raw/master/resources/files/ec/2/syllabus/5_Digital_Electronics_Lab_I.pdf"
      },
      {
        "title": "Mathematical Simulation Lab",
        "type": "Lab",
        "subject_code": "15EC24P",
        "icon": "https://bitbucket.org/AndroidVipra/diplomahelperresources/raw/master/resources/icons/file/file.png",
        "path": "https://bitbucket.org/AndroidVipra/diplomahelperresources/raw/master/resources/files/ec/2/syllabus/6_Mathematical_Simulation_Lab.pdf"
      }
    ]
  }