{
    "subjects": [
      {
        "title": "Strength of Materials",
        "type": "Theory",
        "subject_code": "15ME31T",
        "icon": "https://bitbucket.org/AndroidVipra/diplomahelperresources/raw/master/resources/icons/file/file.png",
        "path": "https://bitbucket.org/AndroidVipra/diplomahelperresources/raw/master/resources/files/mech/3/syllabus/1_Strength_of_materials.pdf"
      },
      {
        "title": "Mechanics of Machines",
        "type": "Theory",
        "subject_code": "15ME32T",
        "icon": "https://bitbucket.org/AndroidVipra/diplomahelperresources/raw/master/resources/icons/file/file.png",
        "path": "https://bitbucket.org/AndroidVipra/diplomahelperresources/raw/master/resources/files/mech/3/syllabus/2_Mechanics_of_Machines.pdf"
      },
      {
        "title": "Mechanical Measurements",
        "type": "Theory",
        "subject_code": "15ME33T",
        "icon": "https://bitbucket.org/AndroidVipra/diplomahelperresources/raw/master/resources/icons/file/file.png",
        "path": "https://bitbucket.org/AndroidVipra/diplomahelperresources/raw/master/resources/files/mech/3/syllabus/3_Mechanical_Measurements.pdf"
      },
      {
        "title": "Machine Drawing",
        "type": "Theory",
        "subject_code": "15ME34D",
        "icon": "https://bitbucket.org/AndroidVipra/diplomahelperresources/raw/master/resources/icons/file/file.png",
        "path": "https://bitbucket.org/AndroidVipra/diplomahelperresources/raw/master/resources/files/mech/3/syllabus/4_Machine_Drawing.pdf"
      },
      {
        "title": "Mechanical Computer Aided Drafting (MCAD)",
        "type": "Lab",
        "subject_code": "15ME35P",
        "icon": "https://bitbucket.org/AndroidVipra/diplomahelperresources/raw/master/resources/icons/file/file.png",
        "path": "https://bitbucket.org/AndroidVipra/diplomahelperresources/raw/master/resources/files/mech/3/syllabus/5_M_CAD_LAB.pdf"
      },
      {
        "title": "Basic Work Shop Practice- II",
        "type": "Lab",
        "subject_code": "15ME36P",
        "icon": "https://bitbucket.org/AndroidVipra/diplomahelperresources/raw/master/resources/icons/file/file.png",
        "path": "https://bitbucket.org/AndroidVipra/diplomahelperresources/raw/master/resources/files/mech/3/syllabus/6_Basic_workshop_practice_II.pdf"
      },
      {
        "title": "Mechanical Testing And Quality Control Lab",
        "type": "Lab",
        "subject_code": "15ME37P",
        "icon": "https://bitbucket.org/AndroidVipra/diplomahelperresources/raw/master/resources/icons/file/file.png",
        "path": "https://bitbucket.org/AndroidVipra/diplomahelperresources/raw/master/resources/files/mech/3/syllabus/7_MT_and_QC_LAB.pdf"
      },
      {
        "title": "Kannada Kali-1",
        "type": "Theory (For Non-Kannada students)",
        "subject_code": "15KA3NT",
        "icon": "https://bitbucket.org/AndroidVipra/diplomahelperresources/raw/master/resources/icons/file/file.png",
        "path": "https://bitbucket.org/AndroidVipra/diplomahelperresources/raw/master/resources/files/mech/3/syllabus/8_Kannada_Kali_1_NK.pdf"
      },
      {
        "title": "Tantrika Kannada",
        "type": "Theory (For Kannada students)",
        "subject_code": "15KA3KT",
        "icon": "https://bitbucket.org/AndroidVipra/diplomahelperresources/raw/master/resources/icons/file/file.png",
        "path": "https://bitbucket.org/AndroidVipra/diplomahelperresources/raw/master/resources/files/mech/3/syllabus/9_Tantrika_Kannada_1_K.pdf"
      },
      {
        "title": "Scheme of study for Kannada",
        "type": "C-15 Curriculum",
        "subject_code": "15KA3KT",
        "icon": "https://bitbucket.org/AndroidVipra/diplomahelperresources/raw/master/resources/icons/file/file.png",
        "path": "https://bitbucket.org/AndroidVipra/diplomahelperresources/raw/master/resources/files/mech/3/syllabus/Scheme_of_study_for_Kannada.pdf"
      }
    ]
  }