{
  "subjects": [
    {
      "title": "Software Engineering",
      "type": "Theory",
      "subject_code": "15CS51T",
      "icon": "https://bitbucket.org/AndroidVipra/diplomahelperresources/raw/master/resources/icons/file/file.png",
      "path": "https://bitbucket.org/AndroidVipra/diplomahelperresources/raw/master/resources/files/cs/5/syllabus/1_Software_Engg.pdf"
    },
    {
      "title": "Web Programming",
      "type": "Theory",
      "subject_code": "15CS52T",
      "icon": "https://bitbucket.org/AndroidVipra/diplomahelperresources/raw/master/resources/icons/file/file.png",
      "path": "https://bitbucket.org/AndroidVipra/diplomahelperresources/raw/master/resources/files/cs/5/syllabus/2_Web_Prgm.pdf"
    },
    {
      "title": "Design and Analysis of Algorithms",
      "type": "Theory",
      "subject_code": "15CS53T",
      "icon": "https://bitbucket.org/AndroidVipra/diplomahelperresources/raw/master/resources/icons/file/file.png",
      "path": "https://bitbucket.org/AndroidVipra/diplomahelperresources/raw/master/resources/files/cs/5/syllabus/3_Design_Analysis_Algorithms.pdf"
    },
    {
      "title": "Green Computing",
      "type": "Theory",
      "subject_code": "15CS54T",
      "icon": "https://bitbucket.org/AndroidVipra/diplomahelperresources/raw/master/resources/icons/file/file.png",
      "path": "https://bitbucket.org/AndroidVipra/diplomahelperresources/raw/master/resources/files/cs/5/syllabus/4_Green_Computing.pdf"
    },
    {
      "title": "Web Programming Lab",
      "type": "Lab",
      "subject_code": "15CS55P",
      "icon": "https://bitbucket.org/AndroidVipra/diplomahelperresources/raw/master/resources/icons/file/file.png",
      "path": "https://bitbucket.org/AndroidVipra/diplomahelperresources/raw/master/resources/files/cs/5/syllabus/5_Web_Prgm_Lab.pdf"
    },
    {
      "title": "Design and Analysis of Algorithms Lab",
      "type": "Lab",
      "subject_code": "15CS56P",
      "icon": "https://bitbucket.org/AndroidVipra/diplomahelperresources/raw/master/resources/icons/file/file.png",
      "path": "https://bitbucket.org/AndroidVipra/diplomahelperresources/raw/master/resources/files/cs/5/syllabus/6_DAA_Lab.pdf"
    },
    {
      "title": "Professional Practices",
      "type": "Assignment Group talk and Practice",
      "subject_code": "15CS57P",
      "icon": "https://bitbucket.org/AndroidVipra/diplomahelperresources/raw/master/resources/icons/file/file.png",
      "path": "https://bitbucket.org/AndroidVipra/diplomahelperresources/raw/master/resources/files/cs/5/syllabus/7_Professional_practices.pdf"
    },
    {
      "title": "Project Work Phase-1",
      "type": "Project",
      "subject_code": "15CS58P",
      "icon": "https://bitbucket.org/AndroidVipra/diplomahelperresources/raw/master/resources/icons/file/file.png",
      "path": "https://bitbucket.org/AndroidVipra/diplomahelperresources/raw/master/resources/files/cs/5/syllabus/8_Project_work_1.pdf"
    }
  ]
}