{
    "subjects": [
      {
         "title": "Estimation And Costing",
         "subject_type": "Theory",
         "subject_code": "15ME61T",
         "icon": "https://bitbucket.org/AndroidVipra/diplomahelperresources/raw/master/resources/icons/file/files.png"
       },
       {
         "title": "Computer Integrated Manufacturing",
         "subject_type": "Theory",
         "subject_code": "15ME62T",
         "icon": "https://bitbucket.org/AndroidVipra/diplomahelperresources/raw/master/resources/icons/file/files.png"
       },
       {
         "title": "Automobile Engineering",
         "subject_type": "Theory (Elective)",
         "subject_code": "15ME63A",
         "icon": "https://bitbucket.org/AndroidVipra/diplomahelperresources/raw/master/resources/icons/file/files.png"
       },
       {
         "title": "Power Plant Engineering",
         "subject_type": "Theory (Elective)",
         "subject_code": "15ME63B",
         "icon": "https://bitbucket.org/AndroidVipra/diplomahelperresources/raw/master/resources/icons/file/files.png"
       },
       {
         "title": "Renewable Energy Resources",
         "subject_type": "Theory (Elective)",
         "subject_code": "15ME63C",
         "icon": "https://bitbucket.org/AndroidVipra/diplomahelperresources/raw/master/resources/icons/file/files.png"
       },
       {
         "title": "Refrigeration And Air Conditioning",
         "subject_type": "Theory (Elective)",
         "subject_code": "15ME63F",
         "icon": "https://bitbucket.org/AndroidVipra/diplomahelperresources/raw/master/resources/icons/file/files.png"
       }
     ]
   }