{
    "subjects": [
      {
        "title": "Engineering Mathematics- II",
        "type": "Theory",
        "subject_code": "15SC02M",
        "icon": "https://bitbucket.org/AndroidVipra/diplomahelperresources/raw/master/resources/icons/file/file.png",
        "path": "https://bitbucket.org/AndroidVipra/diplomahelperresources/raw/master/resources/files/mech/2/syllabus/1_Engineering_Mathematics_II.pdf"
      },
      {
        "title": "Applied Science",
        "type": "Theory",
        "subject_code": "15SC03S",
        "icon": "https://bitbucket.org/AndroidVipra/diplomahelperresources/raw/master/resources/icons/file/file.png",
        "path": "https://bitbucket.org/AndroidVipra/diplomahelperresources/raw/master/resources/files/mech/2/syllabus/2_Applied_Science.pdf"
      },
      {
        "title": "Basic Electrical And Electronics Engineering",
        "type": "Theory",
        "subject_code": "15EE01E",
        "icon": "https://bitbucket.org/AndroidVipra/diplomahelperresources/raw/master/resources/icons/file/file.png",
        "path": "https://bitbucket.org/AndroidVipra/diplomahelperresources/raw/master/resources/files/mech/2/syllabus/3_Basics_of_Electrical_and_Electronics_Engineering.pdf"
      },
      {
        "title": "Engineering Graphics- II",
        "type": "Theory",
        "subject_code": "15ME21D",
        "icon": "https://bitbucket.org/AndroidVipra/diplomahelperresources/raw/master/resources/icons/file/file.png",
        "path": "https://bitbucket.org/AndroidVipra/diplomahelperresources/raw/master/resources/files/mech/2/syllabus/4_Engg_Graphics_II.pdf"
      },
      {
        "title": "Applied Science Lab",
        "type": "Lab",
        "subject_code": "15SC04P",
        "icon": "https://bitbucket.org/AndroidVipra/diplomahelperresources/raw/master/resources/icons/file/file.png",
        "path": "https://bitbucket.org/AndroidVipra/diplomahelperresources/raw/master/resources/files/mech/2/syllabus/5_Applied_Science_Lab.pdf"
      },
      {
        "title": "Basic Electrical And Electronics Engineering Lab",
        "type": "Lab",
        "subject_code": "15EE02P",
        "icon": "https://bitbucket.org/AndroidVipra/diplomahelperresources/raw/master/resources/icons/file/file.png",
        "path": "https://bitbucket.org/AndroidVipra/diplomahelperresources/raw/master/resources/files/mech/2/syllabus/6_Basics_of_Electrical_and_Electronics_Engg_Lab.pdf"
      }
    ]
  }