{
    "subjects": [
      {
        "title": "Industrial Drives And Control",
        "type": "Theory",
        "subject_code": "15EE61T",
        "icon": "https://bitbucket.org/AndroidVipra/diplomahelperresources/raw/master/resources/icons/file/file.png",
        "path": "https://bitbucket.org/AndroidVipra/diplomahelperresources/raw/master/resources/files/ee/6/syllabus/1_Industrial_Drives_Control.pdf"
      },
      {
        "title": "Basic Management Skills & Energy Management",
        "type": "Theory",
        "subject_code": "15EE62T",
        "icon": "https://bitbucket.org/AndroidVipra/diplomahelperresources/raw/master/resources/icons/file/file.png",
        "path": "https://bitbucket.org/AndroidVipra/diplomahelperresources/raw/master/resources/files/ee/6/syllabus/2_Basic_Mgmt_Skills_Engy_Mgmt.pdf"
      },
      {
        "title": "Mechatronics",
        "type": "Theory (Elective)",
        "subject_code": "15EE63A",
        "icon": "https://bitbucket.org/AndroidVipra/diplomahelperresources/raw/master/resources/icons/file/file.png",
        "path": "https://bitbucket.org/AndroidVipra/diplomahelperresources/raw/master/resources/files/ee/6/syllabus/3A_Mechatronics.pdf"
      },
      {
        "title": "Testing, Maintenance And Control of Substation",
        "type": "Theory (Elective)",
        "subject_code": "15EE63B",
        "icon": "https://bitbucket.org/AndroidVipra/diplomahelperresources/raw/master/resources/icons/file/file.png",
        "path": "https://bitbucket.org/AndroidVipra/diplomahelperresources/raw/master/resources/files/ee/6/syllabus/3B_Testing_Maintenance_Control_Substn.pdf"
      },
      {
        "title": "Embedded Systems",
        "type": "Theory",
        "subject_code": "15EE63C",
        "icon": "https://bitbucket.org/AndroidVipra/diplomahelperresources/raw/master/resources/icons/file/file.png",
        "path": "https://bitbucket.org/AndroidVipra/diplomahelperresources/raw/master/resources/files/ee/6/syllabus/3C_Embedded_Systems.pdf"
      },
      {
        "title": "Motor Controland PLC Lab",
        "type": "Lab",
        "subject_code": "15EE64P",
        "icon": "https://bitbucket.org/AndroidVipra/diplomahelperresources/raw/master/resources/icons/file/file.png",
        "path": "https://bitbucket.org/AndroidVipra/diplomahelperresources/raw/master/resources/files/ee/6/syllabus/4_Motor_Control_PLC_Lab.pdf"
      },
      {
        "title": "Professional Practice Lab",
        "type": "Lab",
        "subject_code": "15EE65P",
        "icon": "https://bitbucket.org/AndroidVipra/diplomahelperresources/raw/master/resources/icons/file/file.png",
        "path": "https://bitbucket.org/AndroidVipra/diplomahelperresources/raw/master/resources/files/ee/6/syllabus/5_Professional_Practice_Lab.pdf"
      },
      {
        "title": "Project Work (Electrical and Electronics)",
        "type": "Lab",
        "subject_code": "15EE66P",
        "icon": "https://bitbucket.org/AndroidVipra/diplomahelperresources/raw/master/resources/icons/file/file.png",
        "path": "https://bitbucket.org/AndroidVipra/diplomahelperresources/raw/master/resources/files/ee/6/syllabus/6_Project_Work_II.pdf"
      },
      {
        "title": "Inplant Training",
        "type": "Professional Development",
        "subject_code": "15EE67P",
        "icon": "https://bitbucket.org/AndroidVipra/diplomahelperresources/raw/master/resources/icons/file/file.png",
        "path": "https://bitbucket.org/AndroidVipra/diplomahelperresources/raw/master/resources/files/ee/6/syllabus/7_Inplant_Training.pdf"
      }
    ]
  }