{
    "subjects": [
      {
        "title": "Strength of Materials",
        "subject_type": "Theory",
        "subject_code": "15ME31T",
        "icon": "https://bitbucket.org/AndroidVipra/diplomahelperresources/raw/master/resources/icons/file/files.png"
      },
      {
        "title": "Heat Power Engineering",
        "subject_type": "Theory",
        "subject_code": "15AT31T",
        "icon": "https://bitbucket.org/AndroidVipra/diplomahelperresources/raw/master/resources/icons/file/files.png"
      },
      {
        "title": "Mechanical Workshop Technology",
        "subject_type": "Theory",
        "subject_code": "15ME05T",
        "icon": "https://bitbucket.org/AndroidVipra/diplomahelperresources/raw/master/resources/icons/file/files.png"
      },
      {
        "title": "Automobile Transmission & Control systems",
        "subject_type": "Theory",
        "subject_code": "15AT32T",
        "icon": "https://bitbucket.org/AndroidVipra/diplomahelperresources/raw/master/resources/icons/file/files.png"
      }
     ]
   }