{
    "subjects": [
      {
        "title": "All-In-One Syllabus",
        "type": "",
        "sub_title": "Syllabus",
        "subject_code": "",
        "icon": "https://bitbucket.org/AndroidVipra/diplomahelperresources/raw/master/resources/icons/file/file.png",
        "syllabus": "https://bitbucket.org/AndroidVipra/diplomahelperresources/raw/master/resources/files/c20/am/2/syllabus/all_in_one.pdf",
        "is_qp_available": false
      },
      {
        "title": "Project Management Skills",
        "type": "Theory",
        "sub_title": "Syllabus",
        "subject_code": "20PM01T",
        "icon": "https://bitbucket.org/AndroidVipra/diplomahelperresources/raw/master/resources/icons/file/file.png",
        "syllabus": "https://bitbucket.org/AndroidVipra/diplomahelperresources/raw/master/resources/files/c20/am/2/syllabus/project_management_skills.pdf",
        "is_qp_available": false
      },
      {
        "title": "Statistics and Analytics",
        "type": "Lab",
        "subject_code": "20SC02P",
        "sub_title": "Syllabus",
        "icon": "https://bitbucket.org/AndroidVipra/diplomahelperresources/raw/master/resources/icons/file/file.png",
        "syllabus": "https://bitbucket.org/AndroidVipra/diplomahelperresources/raw/master/resources/files/c20/am/2/syllabus/statistics_and_analytics.pdf",
        "is_qp_available": false
      },
      {
        "title": "Fundamentals of Electrical and Electronics Engineering",
        "type": "Lab",
        "subject_code": "20EE01P",
        "sub_title": "Syllabus",
        "icon": "https://bitbucket.org/AndroidVipra/diplomahelperresources/raw/master/resources/icons/file/file.png",
        "syllabus": "https://bitbucket.org/AndroidVipra/diplomahelperresources/raw/master/resources/files/c20/am/2/syllabus/fundamental_of_eee.pdf",
        "is_qp_available": false
      },
      {
        "title": "IT Skills",
        "type": "Lab",
        "subject_code": "20CS01P",
        "sub_title": "Syllabus",
        "icon": "https://bitbucket.org/AndroidVipra/diplomahelperresources/raw/master/resources/icons/file/file.png",
        "syllabus": "https://bitbucket.org/AndroidVipra/diplomahelperresources/raw/master/resources/files/c20/am/2/syllabus/it_skills.pdf",
        "is_qp_available": false
      },
      {
        "title": "Automotive Engines",
        "type": "Lab",
        "subject_code": "20AT21P",
        "sub_title": "Syllabus",
        "icon": "https://bitbucket.org/AndroidVipra/diplomahelperresources/raw/master/resources/icons/file/file.png",
        "syllabus": "https://bitbucket.org/AndroidVipra/diplomahelperresources/raw/master/resources/files/c20/am/2/syllabus/automotive_engines.pdf",
        "is_qp_available": false
      },
      {
        "title": "Kannada-1",
        "type": "Audit",
        "subject_code": "20KA21T",
        "sub_title": "Syllabus",
        "icon": "https://bitbucket.org/AndroidVipra/diplomahelperresources/raw/master/resources/icons/file/file.png",
        "syllabus": "https://bitbucket.org/AndroidVipra/diplomahelperresources/raw/master/resources/files/c20/am/2/syllabus/kannada.pdf",
        "is_qp_available": false
      }
    ]
  }