{
    "subjects": [
      {
        "title": "Hydraulics",
        "type": "Theory",
        "subject_code": "15CE41T",
        "icon": "https://bitbucket.org/AndroidVipra/diplomahelperresources/raw/master/resources/icons/file/file.png",
        "path": "https://bitbucket.org/AndroidVipra/diplomahelperresources/raw/master/resources/files/ci/4/syllabus/1_HYDRAULICS.pdf"
      },
      {
        "title": "Sanitary Engineering",
        "type": "Theory",
        "subject_code": "15CE42T",
        "icon": "https://bitbucket.org/AndroidVipra/diplomahelperresources/raw/master/resources/icons/file/file.png",
        "path": "https://bitbucket.org/AndroidVipra/diplomahelperresources/raw/master/resources/files/ci/4/syllabus/2_SANITARY_ENGINEERING.pdf"
      },
      {
        "title": "Concrete Technology",
        "type": "Theory",
        "subject_code": "15CE43T",
        "icon": "https://bitbucket.org/AndroidVipra/diplomahelperresources/raw/master/resources/icons/file/file.png",
        "path": "https://bitbucket.org/AndroidVipra/diplomahelperresources/raw/master/resources/files/ci/4/syllabus/3_CONCRETE_TECHNOLOGY.pdf"
      },
      {
        "title": "Professional Ethics & Indian Constitution",
        "type": "Theory",
        "subject_code": "15CE44T",
        "icon": "https://bitbucket.org/AndroidVipra/diplomahelperresources/raw/master/resources/icons/file/file.png",
        "path": "https://bitbucket.org/AndroidVipra/diplomahelperresources/raw/master/resources/files/ci/4/syllabus/4_Professional_Ethics_and_Indian_Constitution.pdf"
      },
      {
        "title": "Soil & Material Testing Lab",
        "type": "Lab",
        "subject_code": "15CE45P",
        "icon": "https://bitbucket.org/AndroidVipra/diplomahelperresources/raw/master/resources/icons/file/file.png",
        "path": "https://bitbucket.org/AndroidVipra/diplomahelperresources/raw/master/resources/files/ci/4/syllabus/5_SOIL_and_MATERIAL_TESTING_LAB.pdf"
      },
      {
        "title": "Computer Aided Building Planning and Drawing",
        "type": "Lab",
        "subject_code": "15CE46P",
        "icon": "https://bitbucket.org/AndroidVipra/diplomahelperresources/raw/master/resources/icons/file/file.png",
        "path": "https://bitbucket.org/AndroidVipra/diplomahelperresources/raw/master/resources/files/ci/4/syllabus/6_COMPUTER_AIDED_BUILDING_PLANNING_AND_DRAWING.pdf"
      },
      {
        "title": "Hydraulics and Environmental Lab",
        "type": "Lab",
        "subject_code": "15CE47P",
        "icon": "https://bitbucket.org/AndroidVipra/diplomahelperresources/raw/master/resources/icons/file/file.png",
        "path": "https://bitbucket.org/AndroidVipra/diplomahelperresources/raw/master/resources/files/ci/4/syllabus/7_HYDRAULICS_AND_ENVIRONMENTAL_ENGINEERING.pdf"
      },
      {
        "title": "Kannada Kali-2",
        "type": "Theory (For Non-Kannada students)",
        "subject_code": "15KA4NT",
        "icon": "https://bitbucket.org/AndroidVipra/diplomahelperresources/raw/master/resources/icons/file/file.png",
        "path": "https://bitbucket.org/AndroidVipra/diplomahelperresources/raw/master/resources/files/ci/4/syllabus/8_Kannada_Kali_2.pdf"
      },
      {
        "title": "Tantrika Kannada-2",
        "type": "Theory (For Kannada students)",
        "subject_code": "15KA4KT",
        "icon": "https://bitbucket.org/AndroidVipra/diplomahelperresources/raw/master/resources/icons/file/file.png",
        "path": "https://bitbucket.org/AndroidVipra/diplomahelperresources/raw/master/resources/files/ci/4/syllabus/9_Tantrika_Kannada_2.pdf"
      },
      {
        "title": "Scheme of study for Kannada",
        "type": "C-15 Curriculum",
        "subject_code": "15KA4NT",
        "icon": "https://bitbucket.org/AndroidVipra/diplomahelperresources/raw/master/resources/icons/file/file.png",
        "path": "https://bitbucket.org/AndroidVipra/diplomahelperresources/raw/master/resources/files/ci/4/syllabus/Scheme_of_study_for_Kannada.pdf"
      }
    ]
  }