{
    "subjects": [
      {
        "title": "Design of Reinforced Cement Concrete",
        "type": "Theory",
        "subject_code": "15CE51T",
        "icon": "https://bitbucket.org/AndroidVipra/diplomahelperresources/raw/master/resources/icons/file/file.png",
        "path": "https://bitbucket.org/AndroidVipra/diplomahelperresources/raw/master/resources/files/ci/5/syllabus/1_DESIGN_OF_REINFORCED_CEMENT_CONCRETE.pdf"
      },
      {
        "title": "Water Resources Engineering",
        "type": "Theory",
        "subject_code": "15CE52T",
        "icon": "https://bitbucket.org/AndroidVipra/diplomahelperresources/raw/master/resources/icons/file/file.png",
        "path": "https://bitbucket.org/AndroidVipra/diplomahelperresources/raw/master/resources/files/ci/5/syllabus/2_WATER_RESOURCES_ENGINEERING.pdf"
      },
      {
        "title": "Estimation and Costing",
        "type": "Theory",
        "subject_code": "15CE53T",
        "icon": "https://bitbucket.org/AndroidVipra/diplomahelperresources/raw/master/resources/icons/file/file.png",
        "path": "https://bitbucket.org/AndroidVipra/diplomahelperresources/raw/master/resources/files/ci/5/syllabus/3_ESTIMATION_and_COSTING_15CE53T.pdf"
      },
      {
        "title": "Transportation Engineering",
        "type": "Theory",
        "subject_code": "15CE54T",
        "icon": "https://bitbucket.org/AndroidVipra/diplomahelperresources/raw/master/resources/icons/file/file.png",
        "path": "https://bitbucket.org/AndroidVipra/diplomahelperresources/raw/master/resources/files/ci/5/syllabus/4_TRANSPORTATION_ENGINEERING_15CE54T.pdf"
      },
      {
        "title": "Irrigation and Bridge Drawing",
        "type": "Theory",
        "subject_code": "15CE55D",
        "icon": "https://bitbucket.org/AndroidVipra/diplomahelperresources/raw/master/resources/icons/file/file.png",
        "path": "https://bitbucket.org/AndroidVipra/diplomahelperresources/raw/master/resources/files/ci/5/syllabus/5_IRRIGATION_AND_BRIDGE DRAWING_15CE55D.pdf"
      },
      {
        "title": "Construction Practice",
        "type": "Lab",
        "subject_code": "15CE56P",
        "icon": "https://bitbucket.org/AndroidVipra/diplomahelperresources/raw/master/resources/icons/file/file.png",
        "path": "https://bitbucket.org/AndroidVipra/diplomahelperresources/raw/master/resources/files/ci/5/syllabus/6_CONSTRUCTION_PRACTICE_15CE56P.pdf"
      },
      {
        "title": "Professional Practice",
        "type": "Lab",
        "subject_code": "15CE57P",
        "icon": "https://bitbucket.org/AndroidVipra/diplomahelperresources/raw/master/resources/icons/file/file.png",
        "path": "https://bitbucket.org/AndroidVipra/diplomahelperresources/raw/master/resources/files/ci/5/syllabus/7_PROFESSIONAL_PRACTICE_15CE57P.pdf"
      },
      {
        "title": "Project Work-1",
        "type": "Project",
        "subject_code": "15CE58P",
        "icon": "https://bitbucket.org/AndroidVipra/diplomahelperresources/raw/master/resources/icons/file/file.png",
        "path": "https://bitbucket.org/AndroidVipra/diplomahelperresources/raw/master/resources/files/ci/5/syllabus/8_PROJECT_WORK_I_15CE58P.pdf"
      }
    ]
  }