{
    "subjects": [
      {
        "title": "Engineering Mathematics– I",
        "type": "Theory",
        "sub_title": "Syllabus & Question papers",
        "subject_code": "15SC01M",
        "icon": "https://bitbucket.org/AndroidVipra/diplomahelperresources/raw/master/resources/icons/file/files.png",
        "syllabus": "https://bitbucket.org/AndroidVipra/diplomahelperresources/raw/master/resources/files/c15/ec/1/syllabus/1_Engineering_Mathematics_I.pdf",
        "is_qp_available": true
      },
      {
        "title": "Applied Science",
        "type": "Theory",
        "sub_title": "Syllabus & Question papers",
        "subject_code": "15SC03S",
        "icon": "https://bitbucket.org/AndroidVipra/diplomahelperresources/raw/master/resources/icons/file/files.png",
        "syllabus": "https://bitbucket.org/AndroidVipra/diplomahelperresources/raw/master/resources/files/c15/ec/1/syllabus/2_Applied_Science.pdf",
        "is_qp_available": true
      },
      {
        "title": "Basics of Electrical and Electronics Engg",
        "type": "Theory",
        "sub_title": "Syllabus & Question papers",
        "subject_code": "15EC11T",
        "icon": "https://bitbucket.org/AndroidVipra/diplomahelperresources/raw/master/resources/icons/file/files.png",
        "syllabus": "https://bitbucket.org/AndroidVipra/diplomahelperresources/raw/master/resources/files/c15/ec/1/syllabus/3_Basics_of_Electrical_and_Electronics_Engg.pdf",
        "is_qp_available": true
      },
      {
        "title": "Applied Science Lab",
        "type": "Lab",
        "sub_title": "Syllabus",
        "subject_code": "15SC04P",
        "icon": "https://bitbucket.org/AndroidVipra/diplomahelperresources/raw/master/resources/icons/file/file.png",
        "syllabus": "https://bitbucket.org/AndroidVipra/diplomahelperresources/raw/master/resources/files/c15/ec/1/syllabus/4_Applied_Science_Lab.pdf",
        "is_qp_available": false
      },
      {
        "title": "Basics of Electrical & Electronic Engg. Lab",
        "type": "Lab",
        "sub_title": "Syllabus",
        "subject_code": "15EC12P",
        "icon": "https://bitbucket.org/AndroidVipra/diplomahelperresources/raw/master/resources/icons/file/file.png",
        "syllabus": "https://bitbucket.org/AndroidVipra/diplomahelperresources/raw/master/resources/files/c15/ec/1/syllabus/5_Basics_of_Electrical_and_Electronics_Lab.pdf",
        "is_qp_available": false
      },
      {
        "title": "Concepts of Computer Lab",
        "type": "Lab",
        "sub_title": "Syllabus",
        "subject_code": "15EC13P",
        "icon": "https://bitbucket.org/AndroidVipra/diplomahelperresources/raw/master/resources/icons/file/file.png",
        "syllabus": "https://bitbucket.org/AndroidVipra/diplomahelperresources/raw/master/resources/files/c15/ec/1/syllabus/6_Concepts_of_Computer_Lab.pdf",
        "is_qp_available": false
      }
    ]
  }