{
    "subjects": [
      {
        "title": "Professional Ethics & Indian Constitution",
        "type": "Theory",
        "subject_code": "15EC41T",
        "icon": "https://bitbucket.org/AndroidVipra/diplomahelperresources/raw/master/resources/icons/file/file.png",
        "path": "https://bitbucket.org/AndroidVipra/diplomahelperresources/raw/master/resources/files/ec/4/syllabus/1_Professional_Ethics_and_Indian_Constitution.pdf"
      },
      {
        "title": "Microcontroller & Applications",
        "type": "Theory",
        "subject_code": "15EC42T",
        "icon": "https://bitbucket.org/AndroidVipra/diplomahelperresources/raw/master/resources/icons/file/file.png",
        "path": "https://bitbucket.org/AndroidVipra/diplomahelperresources/raw/master/resources/files/ec/4/syllabus/2_Microcontroller_and_applications_Theory.pdf"
      },
      {
        "title": "Digital Communication",
        "type": "Theory",
        "subject_code": "15EC43T",
        "icon": "https://bitbucket.org/AndroidVipra/diplomahelperresources/raw/master/resources/icons/file/file.png",
        "path": "https://bitbucket.org/AndroidVipra/diplomahelperresources/raw/master/resources/files/ec/4/syllabus/3_Digital_communication_Theory.pdf"
      },
      {
        "title": "Data Communication and Networking",
        "type": "Theory",
        "subject_code": "15EC44T",
        "icon": "https://bitbucket.org/AndroidVipra/diplomahelperresources/raw/master/resources/icons/file/file.png",
        "path": "https://bitbucket.org/AndroidVipra/diplomahelperresources/raw/master/resources/files/ec/4/syllabus/4_Data_communication_and_networking_Theory.pdf"
      },
      {
        "title": "Professional Practices",
        "type": "Lab (Elective)",
        "subject_code": "15EC45P",
        "icon": "https://bitbucket.org/AndroidVipra/diplomahelperresources/raw/master/resources/icons/file/file.png",
        "path": "https://bitbucket.org/AndroidVipra/diplomahelperresources/raw/master/resources/files/ec/4/syllabus/5_Professional_practices.pdf"
      },
      {
        "title": "Microcontroller Lab",
        "type": "Lab",
        "subject_code": "15EC46P",
        "icon": "https://bitbucket.org/AndroidVipra/diplomahelperresources/raw/master/resources/icons/file/file.png",
        "path": "https://bitbucket.org/AndroidVipra/diplomahelperresources/raw/master/resources/files/ec/4/syllabus/6_Microcontroller_Lab.pdf"
      },
      {
        "title": "Digital Communication & Networking Lab",
        "type": "Lab",
        "subject_code": "15EC47P",
        "icon": "https://bitbucket.org/AndroidVipra/diplomahelperresources/raw/master/resources/icons/file/file.png",
        "path": "https://bitbucket.org/AndroidVipra/diplomahelperresources/raw/master/resources/files/ec/4/syllabus/7_Digital_communication_and_networking_Lab.pdf"
      },
      {
        "title": "Kannada Kali-2",
        "type": "Theory (For Non-Kannada students)",
        "subject_code": "15KA4NT",
        "icon": "https://bitbucket.org/AndroidVipra/diplomahelperresources/raw/master/resources/icons/file/file.png",
        "path": "https://bitbucket.org/AndroidVipra/diplomahelperresources/raw/master/resources/files/ec/4/syllabus/8_Kannada_Kali_2.pdf"
      },
      {
        "title": "Tantrika Kannada-2",
        "type": "Theory (For Kannada students)",
        "subject_code": "15KA4KT",
        "icon": "https://bitbucket.org/AndroidVipra/diplomahelperresources/raw/master/resources/icons/file/file.png",
        "path": "https://bitbucket.org/AndroidVipra/diplomahelperresources/raw/master/resources/files/ec/4/syllabus/9_Tantrika_Kannada_2.pdf"
      },
      {
        "title": "Scheme of study for Kannada",
        "type": "C-15 Curriculum",
        "subject_code": "15KA4NT",
        "icon": "https://bitbucket.org/AndroidVipra/diplomahelperresources/raw/master/resources/icons/file/file.png",
        "path": "https://bitbucket.org/AndroidVipra/diplomahelperresources/raw/master/resources/files/ec/4/syllabus/Scheme_of_study_for_Kannada.pdf"
      }
    ]
  }