{
    "subjects": [
      {
        "title": "Fluid Power Transmission & Control System",
        "type": "Theory",
        "subject_code": "15AT41T",
        "icon": "https://bitbucket.org/AndroidVipra/diplomahelperresources/raw/master/resources/icons/file/file.png",
        "path": "https://bitbucket.org/AndroidVipra/diplomahelperresources/raw/master/resources/files/am/4/syllabus/1_Fluid_Power_Transmission_controls.pdf"
      },
      {
        "title": "Mechanics of machines",
        "type": "Theory",
        "subject_code": "15ME32T",
        "icon": "https://bitbucket.org/AndroidVipra/diplomahelperresources/raw/master/resources/icons/file/file.png",
        "path": "https://bitbucket.org/AndroidVipra/diplomahelperresources/raw/master/resources/files/am/4/syllabus/2_Mechanics_of_Machines.pdf"
      },
      {
        "title": "Automobile Electrical & Electronics systems",
        "type": "Theory",
        "subject_code": "15AT42T",
        "icon": "https://bitbucket.org/AndroidVipra/diplomahelperresources/raw/master/resources/icons/file/file.png",
        "path": "https://bitbucket.org/AndroidVipra/diplomahelperresources/raw/master/resources/files/am/4/syllabus/3_Automotive_ee_systems.pdf"
      },
      {
        "title": "Professional Ethics & IC",
        "type": "Theory",
        "subject_code": "15ME44T",
        "icon": "https://bitbucket.org/AndroidVipra/diplomahelperresources/raw/master/resources/icons/file/file.png",
        "path": "https://bitbucket.org/AndroidVipra/diplomahelperresources/raw/master/resources/files/am/4/syllabus/4.Professional_Ethics_and_IC.pdf"
      },
      {
        "title": "Computer Aided Assembly Drawing",
        "type": "Lab",
        "subject_code": "15AT43D",
        "icon": "https://bitbucket.org/AndroidVipra/diplomahelperresources/raw/master/resources/icons/file/file.png",
        "path": "https://bitbucket.org/AndroidVipra/diplomahelperresources/raw/master/resources/files/am/4/syllabus/5_Computer_Aided_Assembly_Drawing.pdf"
      },
      {
        "title": "Automobile Electrical & Electronics systems",
        "type": "Lab",
        "subject_code": "15AT44P",
        "icon": "https://bitbucket.org/AndroidVipra/diplomahelperresources/raw/master/resources/icons/file/file.png",
        "path": "https://bitbucket.org/AndroidVipra/diplomahelperresources/raw/master/resources/files/am/4/syllabus/6_Automobile_ee_systems_lab.pdf"
      },
      {
        "title": "Mechanical work shop practice",
        "type": "Lab",
        "subject_code": "15ME06P",
        "icon": "https://bitbucket.org/AndroidVipra/diplomahelperresources/raw/master/resources/icons/file/file.png",
        "path": "https://bitbucket.org/AndroidVipra/diplomahelperresources/raw/master/resources/files/am/4/syllabus/7_Mechanical_workshop_practice.pdf"
      },
      {
        "title": "Kannada Kali-2",
        "type": "Theory (For Non-Kannada students)",
        "subject_code": "15KA4NT",
        "icon": "https://bitbucket.org/AndroidVipra/diplomahelperresources/raw/master/resources/icons/file/file.png",
        "path": "https://bitbucket.org/AndroidVipra/diplomahelperresources/raw/master/resources/files/ci/4/syllabus/8_Kannada_Kali_2.pdf"
      },
      {
        "title": "Tantrika Kannada-2",
        "type": "Theory (For Kannada students)",
        "subject_code": "15KA4KT",
        "icon": "https://bitbucket.org/AndroidVipra/diplomahelperresources/raw/master/resources/icons/file/file.png",
        "path": "https://bitbucket.org/AndroidVipra/diplomahelperresources/raw/master/resources/files/ci/4/syllabus/9_Tantrika_Kannada_2.pdf"
      },
      {
        "title": "Scheme of study for Kannada",
        "type": "C-15 Curriculum",
        "subject_code": "15KA4NT",
        "icon": "https://bitbucket.org/AndroidVipra/diplomahelperresources/raw/master/resources/icons/file/file.png",
        "path": "https://bitbucket.org/AndroidVipra/diplomahelperresources/raw/master/resources/files/ci/4/syllabus/Scheme_of_study_for_Kannada.pdf"
      }
    ]
  }