{
    "subjects": [
      {
         "title": "Hydraulics & Pneumatics",
         "subject_type": "Theory",
         "subject_code": "15ME41T",
         "icon": "https://bitbucket.org/AndroidVipra/diplomahelperresources/raw/master/resources/icons/file/files.png"
       },
       {
         "title": "Basic Thermal Engineering",
         "subject_type": "Theory",
         "subject_code": "15ME42T",
         "icon": "https://bitbucket.org/AndroidVipra/diplomahelperresources/raw/master/resources/icons/file/files.png"
       },
       {
         "title": "Machine Tool Technology",
         "subject_type": "Theory",
         "subject_code": "15ME43T",
         "icon": "https://bitbucket.org/AndroidVipra/diplomahelperresources/raw/master/resources/icons/file/files.png"
       },
       {
         "title": "Professional Ethics & Indian Constitution",
         "subject_type": "Theory",
         "subject_code": "15ME44T",
         "icon": "https://bitbucket.org/AndroidVipra/diplomahelperresources/raw/master/resources/icons/file/files.png"
       },
       {
        "title": "Kannada Kali",
        "subject_type": "Theory (Non-Kannada students)",
        "subject_code": "15KA4NT",
        "icon": "https://bitbucket.org/AndroidVipra/diplomahelperresources/raw/master/resources/icons/file/files.png"
      },
      {
        "title": "Tantrika Kannada",
        "subject_type": "Theory (Kannada students)",
        "subject_code": "15KA4KT",
        "icon": "https://bitbucket.org/AndroidVipra/diplomahelperresources/raw/master/resources/icons/file/file.png"
      }
     ]
   }