{
  "semesters": {
    "1": {
      "name": "Semester 1",
      "icon": "https://bitbucket.org/AndroidVipra/diplomahelperresources/raw/master/resources/icons/sem/number_one.png",
      "semDetails": [
        {
          "icon": "https://bitbucket.org/AndroidVipra/diplomahelperresources/raw/master/resources/icons/sem/qp.png",
          "title": "Question Papers",
          "key": "qp",
          "sub_title": "Previous year question papers"
        },
        {
          "icon": "https://bitbucket.org/AndroidVipra/diplomahelperresources/raw/master/resources/icons/sem/syllabus.png",
          "title": "Syllabus",
          "key": "syllabus",
          "sub_title": "Syllabus copy of the current semester"
        }
      ]
    },
    "2": {
      "name": "Semester 2",
      "icon": "https://bitbucket.org/AndroidVipra/diplomahelperresources/raw/master/resources/icons/sem/number_two.png",
      "semDetails": [
        {
          "icon": "https://bitbucket.org/AndroidVipra/diplomahelperresources/raw/master/resources/icons/sem/qp.png",
          "title": "Question Papers",
          "key": "qp",
          "sub_title": "Previous year question papers"
        },
        {
          "icon": "https://bitbucket.org/AndroidVipra/diplomahelperresources/raw/master/resources/icons/sem/syllabus.png",
          "title": "Syllabus",
          "key": "syllabus",
          "sub_title": "Syllabus copy of the current semester"
        }
      ]
    },
    "3": {
      "name": "Semester 3",
      "icon": "https://bitbucket.org/AndroidVipra/diplomahelperresources/raw/master/resources/icons/sem/number_three.png",
      "semDetails": [
        {
          "icon": "https://bitbucket.org/AndroidVipra/diplomahelperresources/raw/master/resources/icons/sem/qp.png",
          "title": "Question Papers",
          "key": "qp",
          "sub_title": "Previous year question papers"
        },
        {
          "icon": "https://bitbucket.org/AndroidVipra/diplomahelperresources/raw/master/resources/icons/sem/syllabus.png",
          "title": "Syllabus",
          "key": "syllabus",
          "sub_title": "Syllabus copy of the current semester"
        }
      ]
    },
    "4": {
      "name": "Semester 4",
      "icon": "https://bitbucket.org/AndroidVipra/diplomahelperresources/raw/master/resources/icons/sem/number_four.png",
      "semDetails": [
        {
          "icon": "https://bitbucket.org/AndroidVipra/diplomahelperresources/raw/master/resources/icons/sem/qp.png",
          "title": "Question Papers",
          "key": "qp",
          "sub_title": "Previous year question papers"
        },
        {
          "icon": "https://bitbucket.org/AndroidVipra/diplomahelperresources/raw/master/resources/icons/sem/syllabus.png",
          "title": "Syllabus",
          "key": "syllabus",
          "sub_title": "Syllabus copy of the current semester"
        }
      ]
    },
    "5": {
      "name": "Semester 5",
      "icon": "https://bitbucket.org/AndroidVipra/diplomahelperresources/raw/master/resources/icons/sem/number_five.png",
      "semDetails": [
        {
          "icon": "https://bitbucket.org/AndroidVipra/diplomahelperresources/raw/master/resources/icons/sem/qp.png",
          "title": "Question Papers",
          "key": "qp",
          "sub_title": "Previous year question papers"
        },
        {
          "icon": "https://bitbucket.org/AndroidVipra/diplomahelperresources/raw/master/resources/icons/sem/syllabus.png",
          "title": "Syllabus",
          "key": "syllabus",
          "sub_title": "Syllabus copy of the current semester"
        }
      ]
    },
    "6": {
      "name": "Semester 6",
      "icon": "https://bitbucket.org/AndroidVipra/diplomahelperresources/raw/master/resources/icons/sem/number_six.png",
      "semDetails": [
        {
          "icon": "https://bitbucket.org/AndroidVipra/diplomahelperresources/raw/master/resources/icons/sem/qp.png",
          "title": "Question Papers",
          "key": "qp",
          "sub_title": "Previous year question papers"
        },
        {
          "icon": "https://bitbucket.org/AndroidVipra/diplomahelperresources/raw/master/resources/icons/sem/syllabus.png",
          "title": "Syllabus",
          "key": "syllabus",
          "sub_title": "Syllabus copy of the current semester"
        }
      ]
    }
  }
}