{
  "subjects": [
    {
      "title": "Data Structures using C",
      "type": "Theory",
      "subject_code": "15CS41T",
      "icon": "https://bitbucket.org/AndroidVipra/diplomahelperresources/raw/master/resources/icons/file/file.png",
      "path": "https://bitbucket.org/AndroidVipra/diplomahelperresources/raw/master/resources/files/cs/4/syllabus/1_DS_using_C.pdf"
    },
    {
      "title": "OOP With Java",
      "type": "Theory",
      "subject_code": "15CS42T",
      "icon": "https://bitbucket.org/AndroidVipra/diplomahelperresources/raw/master/resources/icons/file/file.png",
      "path": "https://bitbucket.org/AndroidVipra/diplomahelperresources/raw/master/resources/files/cs/4/syllabus/2_OOP_with_Java.pdf"
    },
    {
      "title": "Operating System",
      "type": "Theory",
      "subject_code": "15CS43T",
      "icon": "https://bitbucket.org/AndroidVipra/diplomahelperresources/raw/master/resources/icons/file/file.png",
      "path": "https://bitbucket.org/AndroidVipra/diplomahelperresources/raw/master/resources/files/cs/4/syllabus/3_Operating_System.pdf"
    },
    {
      "title": "Professional Ethics & Indian Constitution",
      "type": "Theory",
      "subject_code": "15CS44T",
      "icon": "https://bitbucket.org/AndroidVipra/diplomahelperresources/raw/master/resources/icons/file/file.png",
      "path": "https://bitbucket.org/AndroidVipra/diplomahelperresources/raw/master/resources/files/cs/4/syllabus/4_Prof_Ethics_Indian_Constitution.pdf"
    },
    {
      "title": "Data Structures lab",
      "type": "Lab",
      "subject_code": "15CS45P",
      "icon": "https://bitbucket.org/AndroidVipra/diplomahelperresources/raw/master/resources/icons/file/file.png",
      "path": "https://bitbucket.org/AndroidVipra/diplomahelperresources/raw/master/resources/files/cs/4/syllabus/5_DS_lab.pdf"
    },
    {
      "title": "OOP with Java Lab",
      "type": "Lab",
      "subject_code": "15CS46P",
      "icon": "https://bitbucket.org/AndroidVipra/diplomahelperresources/raw/master/resources/icons/file/file.png",
      "path": "https://bitbucket.org/AndroidVipra/diplomahelperresources/raw/master/resources/files/cs/4/syllabus/6_OOP_with_Java_Lab.pdf"
    },
    {
      "title": "Linux Lab",
      "type": "Lab",
      "subject_code": "15CS47P",
      "icon": "https://bitbucket.org/AndroidVipra/diplomahelperresources/raw/master/resources/icons/file/file.png",
      "path": "https://bitbucket.org/AndroidVipra/diplomahelperresources/raw/master/resources/files/cs/4/syllabus/7_Linux_lab.pdf"
    }
  ]
}