{
    "subjects": [
      {
        "title": "Engineering Mathematics – II",
        "type": "Theory",
        "sub_title": "Syllabus & Question papers",
        "subject_code": "15SC02M",
        "icon": "https://bitbucket.org/AndroidVipra/diplomahelperresources/raw/master/resources/icons/file/files.png",
        "syllabus": "https://bitbucket.org/AndroidVipra/diplomahelperresources/raw/master/resources/files/c15/ci/2/syllabus/1_Engineering_Mathematics_II.pdf",
        "is_qp_available": true
      },
      {
        "title": "Applied Science",
        "type": "Theory",
        "sub_title": "Syllabus & Question papers",
        "subject_code": "15SC03S",
        "icon": "https://bitbucket.org/AndroidVipra/diplomahelperresources/raw/master/resources/icons/file/files.png",
        "syllabus": "https://bitbucket.org/AndroidVipra/diplomahelperresources/raw/master/resources/files/c15/ci/2/syllabus/2_Applied_Science.pdf",
        "is_qp_available": true
      },
      {
        "title": "Surveying - I",
        "type": "Theory",
        "sub_title": "Syllabus & Question papers",
        "subject_code": "15CE21T",
        "icon": "https://bitbucket.org/AndroidVipra/diplomahelperresources/raw/master/resources/icons/file/files.png",
        "syllabus": "https://bitbucket.org/AndroidVipra/diplomahelperresources/raw/master/resources/files/c15/ci/2/syllabus/3_Surveying_1.pdf",
        "is_qp_available": true
      },
      {
        "title": "Engineering Drawing-II",
        "type": "Theory",
        "sub_title": "Syllabus & Question papers",
        "subject_code": "15CE22D",
        "icon": "https://bitbucket.org/AndroidVipra/diplomahelperresources/raw/master/resources/icons/file/files.png",
        "syllabus": "https://bitbucket.org/AndroidVipra/diplomahelperresources/raw/master/resources/files/c15/ci/2/syllabus/4_Engineering_Drawing_II.pdf",
        "is_qp_available": true
      },
      {
        "title": "Applied Science Lab",
        "type": "Lab",
        "sub_title": "Syllabus",
        "subject_code": "15SC04P",
        "icon": "https://bitbucket.org/AndroidVipra/diplomahelperresources/raw/master/resources/icons/file/file.png",
        "syllabus": "https://bitbucket.org/AndroidVipra/diplomahelperresources/raw/master/resources/files/c15/ci/2/syllabus/5_Applied_Science_Lab.pdf",
        "is_qp_available": false
      },
      {
        "title": "Surveying Practice - I",
        "type": "Lab/Mini Project",
        "sub_title": "Syllabus",
        "subject_code": "15CE23P",
        "icon": "https://bitbucket.org/AndroidVipra/diplomahelperresources/raw/master/resources/icons/file/file.png",
        "syllabus": "https://bitbucket.org/AndroidVipra/diplomahelperresources/raw/master/resources/files/c15/ci/2/syllabus/6_Surveying_practice_1.pdf",
        "is_qp_available": false
      }
    ]
  }