{
    "subjects": [
      {
        "title": "Communication Skills In English",
        "type": "Theory",
        "sub_title": "Syllabus & Question papers",
        "subject_code": "15CP01E",
        "icon": "https://bitbucket.org/AndroidVipra/diplomahelperresources/raw/master/resources/icons/file/files.png",
        "syllabus": "https://bitbucket.org/AndroidVipra/diplomahelperresources/raw/master/resources/files/c15/am/1/syllabus/1_Communication_Skills_in_English.pdf",
        "is_qp_available": true
      },
      {
        "title": "Engineering Mathematics – I",
        "type": "Theory",
        "sub_title": "Syllabus & Question papers",
        "subject_code": "15SC01M",
        "icon": "https://bitbucket.org/AndroidVipra/diplomahelperresources/raw/master/resources/icons/file/files.png",
        "syllabus": "https://bitbucket.org/AndroidVipra/diplomahelperresources/raw/master/resources/files/c15/am/1/syllabus/2_Engineering_Mathematics_1.pdf",
        "is_qp_available": true
      },
      {
        "title": "Automobile Engineering – I",
        "type": "Theory",
        "sub_title": "Syllabus & Question papers",
        "subject_code": "15AT11T",
        "icon": "https://bitbucket.org/AndroidVipra/diplomahelperresources/raw/master/resources/icons/file/files.png",
        "syllabus": "https://bitbucket.org/AndroidVipra/diplomahelperresources/raw/master/resources/files/c15/am/1/syllabus/3_Automobile_Engineering_1.pdf",
        "is_qp_available": true
      },
      {
        "title": "Engineering Graphics - I",
        "type": "Theory",
        "sub_title": "Syllabus & Question papers",
        "subject_code": "15ME12D",
        "icon": "https://bitbucket.org/AndroidVipra/diplomahelperresources/raw/master/resources/icons/file/files.png",
        "syllabus": "https://bitbucket.org/AndroidVipra/diplomahelperresources/raw/master/resources/files/c15/am/1/syllabus/4_Engg_graphics_1.pdf",
        "is_qp_available": true
      },
      {
        "title": "Basic Computer Skills Lab",
        "type": "Lab",
        "sub_title": "Syllabus",
        "subject_code": "15AT12P",
        "icon": "https://bitbucket.org/AndroidVipra/diplomahelperresources/raw/master/resources/icons/file/file.png",
        "syllabus": "https://bitbucket.org/AndroidVipra/diplomahelperresources/raw/master/resources/files/c15/am/1/syllabus/5_Basic_computer_skill_lab.pdf",
        "is_qp_available": false
      },
      {
        "title": "Automobile Engineering Lab - I",
        "type": "Lab",
        "sub_title": "Syllabus",
        "subject_code": "15AT13P",
        "icon": "https://bitbucket.org/AndroidVipra/diplomahelperresources/raw/master/resources/icons/file/file.png",
        "syllabus": "https://bitbucket.org/AndroidVipra/diplomahelperresources/raw/master/resources/files/c15/am/1/syllabus/6_Automobile_engg_lab_1.pdf",
        "is_qp_available": false
      }
    ]
  }